{
  "project_info": {
    "project_number": "287077050987",
    "firebase_url": "https://sportnetwork-1289.firebaseio.com",
    "project_id": "sportnetwork-1289",
    "storage_bucket": "sportnetwork-1289.appspot.com"
  },
  "client": [
    {
      "client_info": {
        "mobilesdk_app_id": "1:287077050987:android:3051393e8e085db3",
        "android_client_info": {
          "package_name": "it.sportnetwork.corsportandr"
        }
      },
      "oauth_client": [
        {
          "client_id": "287077050987-q272knpre6rm90437rt81iott6puc1ps.apps.googleusercontent.com",
          "client_type": 3
        },
        {
          "client_id": "287077050987-sjuhhs3856bue9hl19j2a9rjcklbhep1.apps.googleusercontent.com",
          "client_type": 3
        }
      ],
      "api_key": [
        {
          "current_key": "AIzaSyArmDQl5GOEkBjybCwr6xk0zCNwz0a9WSw"
        }
      ],
      "services": {
        "analytics_service": {
          "status": 1
        },
        "appinvite_service": {
          "status": 1,
          "other_platform_oauth_client": []
        },
        "ads_service": {
          "status": 2
        }
      }
    },
    {
      "client_info": {
        "mobilesdk_app_id": "1:287077050987:android:a2c86ac58033a6d4",
        "android_client_info": {
          "package_name": "com.froggy.android.apps.corrieredellosport"
        }
      },
      "oauth_client": [
        {
          "client_id": "287077050987-q272knpre6rm90437rt81iott6puc1ps.apps.googleusercontent.com",
          "client_type": 3
        },
        {
          "client_id": "287077050987-sjuhhs3856bue9hl19j2a9rjcklbhep1.apps.googleusercontent.com",
          "client_type": 3
        }
      ],
      "api_key": [
        {
          "current_key": "AIzaSyArmDQl5GOEkBjybCwr6xk0zCNwz0a9WSw"
        }
      ],
      "services": {
        "analytics_service": {
          "status": 1
        },
        "appinvite_service": {
          "status": 1,
          "other_platform_oauth_client": []
        },
        "ads_service": {
          "status": 2
        }
      }
    },
    {
      "client_info": {
        "mobilesdk_app_id": "1:287077050987:android:d53e1328570da0fc",
        "android_client_info": {
          "package_name": "com.froggy.android.apps.tuttosport"
        }
      },
      "oauth_client": [
        {
          "client_id": "287077050987-q272knpre6rm90437rt81iott6puc1ps.apps.googleusercontent.com",
          "client_type": 3
        },
        {
          "client_id": "287077050987-sjuhhs3856bue9hl19j2a9rjcklbhep1.apps.googleusercontent.com",
          "client_type": 3
        }
      ],
      "api_key": [
        {
          "current_key": "AIzaSyArmDQl5GOEkBjybCwr6xk0zCNwz0a9WSw"
        }
      ],
      "services": {
        "analytics_service": {
          "status": 1
        },
        "appinvite_service": {
          "status": 1,
          "other_platform_oauth_client": []
        },
        "ads_service": {
          "status": 2
        }
      }
    },
    {
      "client_info": {
        "mobilesdk_app_id": "1:287077050987:android:144d4b00c876c297",
        "android_client_info": {
          "package_name": "com.froggy.android.apps.corrieredellosport.debug"
        }
      },
      "oauth_client": [
        {
          "client_id": "287077050987-q272knpre6rm90437rt81iott6puc1ps.apps.googleusercontent.com",
          "client_type": 3
        },
        {
          "client_id": "287077050987-sjuhhs3856bue9hl19j2a9rjcklbhep1.apps.googleusercontent.com",
          "client_type": 3
        }
      ],
      "api_key": [
        {
          "current_key": "AIzaSyArmDQl5GOEkBjybCwr6xk0zCNwz0a9WSw"
        }
      ],
      "services": {
        "analytics_service": {
          "status": 1
        },
        "appinvite_service": {
          "status": 1,
          "other_platform_oauth_client": []
        },
        "ads_service": {
          "status": 2
        }
      }
    },
    {
      "client_info": {
        "mobilesdk_app_id": "1:287077050987:android:95464cf7513cfb1d",
        "android_client_info": {
          "package_name": "com.froggy.android.apps.tuttosport.debug"
        }
      },
      "oauth_client": [
        {
          "client_id": "287077050987-q272knpre6rm90437rt81iott6puc1ps.apps.googleusercontent.com",
          "client_type": 3
        },
        {
          "client_id": "287077050987-sjuhhs3856bue9hl19j2a9rjcklbhep1.apps.googleusercontent.com",
          "client_type": 3
        }
      ],
      "api_key": [
        {
          "current_key": "AIzaSyArmDQl5GOEkBjybCwr6xk0zCNwz0a9WSw"
        }
      ],
      "services": {
        "analytics_service": {
          "status": 1
        },
        "appinvite_service": {
          "status": 1,
          "other_platform_oauth_client": []
        },
        "ads_service": {
          "status": 2
        }
      }
    },
    {
      "client_info": {
        "mobilesdk_app_id": "1:287077050987:android:4f3345e0f786691b",
        "android_client_info": {
          "package_name": "com.ytech.misterCalcioCup"
        }
      },
      "oauth_client": [
        {
          "client_id": "287077050987-q272knpre6rm90437rt81iott6puc1ps.apps.googleusercontent.com",
          "client_type": 3
        },
        {
          "client_id": "287077050987-sjuhhs3856bue9hl19j2a9rjcklbhep1.apps.googleusercontent.com",
          "client_type": 3
        }
      ],
      "api_key": [
        {
          "current_key": "AIzaSyArmDQl5GOEkBjybCwr6xk0zCNwz0a9WSw"
        }
      ],
      "services": {
        "analytics_service": {
          "status": 1
        },
        "appinvite_service": {
          "status": 1,
          "other_platform_oauth_client": []
        },
        "ads_service": {
          "status": 2
        }
      }
    },
    {
      "client_info": {
        "mobilesdk_app_id": "1:287077050987:android:29a4cde900ad4c43",
        "android_client_info": {
          "package_name": "com.ytech.tuttoSportLeague"
        }
      },
      "oauth_client": [
        {
          "client_id": "287077050987-q272knpre6rm90437rt81iott6puc1ps.apps.googleusercontent.com",
          "client_type": 3
        },
        {
          "client_id": "287077050987-sjuhhs3856bue9hl19j2a9rjcklbhep1.apps.googleusercontent.com",
          "client_type": 3
        }
      ],
      "api_key": [
        {
          "current_key": "AIzaSyArmDQl5GOEkBjybCwr6xk0zCNwz0a9WSw"
        }
      ],
      "services": {
        "analytics_service": {
          "status": 1
        },
        "appinvite_service": {
          "status": 1,
          "other_platform_oauth_client": []
        },
        "ads_service": {
          "status": 2
        }
      }
    }
  ],
  "configuration_version": "1"
}